{
  "regions":
  {
    "Nord": ["Centre-Nord", "Nord", "Sahel"],
    "Est": ["Est", "Centre-Est"],
    "Delta de la Volta": ["Centre", "Centre-Sud", "Plateau-Central", "Centre-Ouest"],
    "Mouhoun": ["Boucle du Mouhoun", "Hauts-Bassins", "Cascades", "Sud-Ouest"]
  }
}